%FSLAX23Y23*%
%MOIN*%
G70*
G01*
G75*
%ADD10C,0.010*%
%ADD11R,0.014X0.059*%
%ADD12R,0.031X0.031*%
%ADD13R,0.030X0.030*%
%ADD14R,0.050X0.040*%
%ADD15R,0.040X0.050*%
%ADD16C,0.060*%
%ADD17C,0.031*%
%ADD18C,0.020*%
%ADD19C,0.039*%
%ADD20C,0.010*%
%ADD21C,0.070*%
%ADD22C,0.030*%
D10*
X10939Y8538D02*
X10937Y8547D01*
X10933Y8555D01*
X10889D02*
X10884Y8546D01*
X10883Y8537D01*
X10885Y8527D01*
X10890Y8519D01*
X10897Y8513D01*
X10906Y8510D01*
X10916Y8510D01*
X10925Y8514D01*
X10932Y8520D01*
X10937Y8528D01*
X10939Y8538D01*
X10884Y8678D02*
X10882Y8687D01*
X10877Y8695D01*
X10870Y8702D01*
X10861Y8705D01*
X10851Y8705D01*
X10842Y8702D01*
Y8653D02*
X10851Y8650D01*
X10861Y8650D01*
X10870Y8654D01*
X10877Y8660D01*
X10882Y8668D01*
X10884Y8678D01*
X10826Y8616D02*
X10824Y8625D01*
X10819Y8633D01*
X10860Y8548D02*
X10847Y8553D01*
X10860Y8548D02*
X10847Y8553D01*
X10821Y8600D02*
X10824Y8608D01*
X10826Y8616D01*
X10819Y8553D02*
X10812Y8559D01*
X10803Y8563D01*
X10793Y8563D01*
X10784Y8560D01*
X10776Y8553D01*
X10771Y8545D01*
X10770Y8535D01*
X10771Y8526D01*
X10776Y8517D01*
X10784Y8511D01*
X10793Y8508D01*
X10803Y8508D01*
X10812Y8511D01*
X10819Y8517D01*
X10893Y8508D02*
X10887Y8520D01*
X10893Y8508D02*
X10887Y8520D01*
Y8356D02*
X10893Y8369D01*
X10887Y8356D02*
X10893Y8369D01*
X10860Y8335D02*
X10871Y8340D01*
X10860Y8335D02*
X10871Y8340D01*
X10857Y8396D02*
X10853Y8406D01*
X10845Y8413D01*
X10835Y8417D01*
X10819Y8311D02*
X10824Y8321D01*
X10819Y8311D02*
X10824Y8321D01*
X10763Y8551D02*
X10775Y8556D01*
X10763Y8551D02*
X10775Y8556D01*
X10751Y8526D02*
X10749Y8536D01*
X10743Y8544D01*
X10735Y8551D01*
X10737Y8502D02*
X10744Y8508D01*
X10749Y8516D01*
X10751Y8526D01*
X10728Y8498D02*
X10737Y8502D01*
X10697Y8621D02*
X10692Y8609D01*
X10697Y8621D02*
X10692Y8609D01*
X10715Y8556D02*
X10719Y8553D01*
X10715Y8556D02*
X10719Y8553D01*
X10719D02*
X10710Y8550D01*
X10703Y8545D01*
X10698Y8538D01*
X10692Y8587D02*
X10697Y8574D01*
X10692Y8587D02*
X10697Y8574D01*
X10717Y8498D02*
X10728Y8498D01*
X10708Y8502D02*
X10717Y8498D01*
X10721Y8424D02*
X10717Y8424D01*
X10721Y8424D02*
X10717Y8424D01*
X10872Y8037D02*
X10865Y8045D01*
X10872Y8037D02*
X10865Y8045D01*
X10905Y7992D02*
X10916Y7996D01*
X10856Y8051D02*
X10843Y8056D01*
X10894Y7807D02*
X10901Y7814D01*
X10906Y7822D01*
X10909Y7831D01*
X10910Y7841D01*
X10868Y7898D02*
X10874Y7911D01*
X10868Y7898D02*
X10874Y7911D01*
X10910Y7841D02*
X10909Y7851D01*
X10905Y7861D01*
X10899Y7869D01*
X10891Y7876D01*
X10882Y7881D01*
X10871Y7883D01*
X10861Y7883D01*
X10851Y7880D01*
X10828Y7824D02*
X10831Y7817D01*
X10836Y7811D01*
Y7754D02*
X10839Y7743D01*
X10845Y7734D01*
X10836Y7754D02*
X10839Y7743D01*
X10845Y7734D01*
X10734Y8107D02*
X10743Y8109D01*
X10734Y8107D02*
X10743Y8109D01*
X10752Y7998D02*
X10763Y7994D01*
X10615Y8124D02*
X10621Y8126D01*
X10615Y8124D02*
X10621Y8126D01*
X10749Y7824D02*
X10754Y7815D01*
X10761Y7808D01*
X10769Y7802D01*
X10778Y7799D01*
X10788Y7798D01*
X10798Y7799D01*
X10808Y7802D01*
X10816Y7808D01*
X10823Y7815D01*
X10828Y7824D01*
X10639Y7893D02*
X10650Y7895D01*
X10659Y7901D01*
X10639Y7893D02*
X10650Y7895D01*
X10659Y7901D01*
X10725Y7881D02*
X10716Y7883D01*
X10706Y7883D01*
X10697Y7882D01*
X10689Y7878D01*
X10681Y7872D01*
X10675Y7866D01*
X10670Y7857D01*
Y7824D02*
X10675Y7815D01*
X10682Y7808D01*
X10690Y7802D01*
X10700Y7799D01*
X10710Y7798D01*
X10719Y7799D01*
X10729Y7802D01*
X10737Y7808D01*
X10744Y7815D01*
X10749Y7824D01*
X10612Y7802D02*
X10622Y7799D01*
X10631Y7798D01*
X10641Y7799D01*
X10650Y7802D01*
X10659Y7808D01*
X10665Y7815D01*
X10670Y7824D01*
X10578Y8694D02*
X10570Y8700D01*
X10561Y8703D01*
X10552Y8703D01*
X10543Y8700D01*
X10535Y8694D01*
X10530Y8685D01*
X10529Y8676D01*
X10530Y8666D01*
X10535Y8658D01*
X10543Y8652D01*
X10552Y8648D01*
X10561Y8648D01*
X10570Y8652D01*
X10578Y8658D01*
X10594Y8099D02*
X10589Y8087D01*
X10594Y8099D02*
X10589Y8087D01*
X10495Y8685D02*
X10492Y8694D01*
X10486Y8701D01*
X10477Y8703D01*
X10495Y8685D02*
X10492Y8694D01*
X10486Y8701D01*
X10477Y8703D01*
X10502Y8535D02*
X10495Y8536D01*
X9486Y8703D02*
X9477Y8701D01*
X9470Y8694D01*
X9468Y8685D01*
X9486Y8703D02*
X9477Y8701D01*
X9470Y8694D01*
X9468Y8685D01*
X10670Y7857D02*
X10665Y7866D01*
X10659Y7873D01*
X10651Y7879D01*
X10641Y7882D01*
X10632Y7883D01*
X10622Y7882D01*
X10613Y7879D01*
X10604Y7874D01*
X10597Y7867D01*
X10592Y7859D01*
X10514Y7809D02*
X10523Y7804D01*
X10533Y7802D01*
X10507Y7843D02*
X10505Y7835D01*
Y7826D01*
X10507Y7818D01*
X10477Y7644D02*
X10486Y7646D01*
X10492Y7653D01*
X10495Y7662D01*
X10477Y7644D02*
X10486Y7646D01*
X10492Y7653D01*
X10495Y7662D01*
X9468D02*
X9470Y7653D01*
X9477Y7646D01*
X9486Y7644D01*
X10883Y8683D02*
X10944D01*
X10883Y8673D02*
X10944D01*
X10937Y8610D02*
Y8728D01*
X10868Y8703D02*
X10944D01*
X10879Y8693D02*
X10944D01*
X10884Y8610D02*
X10940D01*
Y8604D02*
X10944D01*
X10880Y8663D02*
X10944D01*
X10870Y8654D02*
X10944D01*
X10927Y8610D02*
Y8728D01*
X10917Y8610D02*
Y8728D01*
X10907Y8610D02*
Y8728D01*
X10897Y8610D02*
Y8728D01*
X10887Y8610D02*
Y8728D01*
X10878Y8695D02*
Y8728D01*
X10884Y8600D02*
Y8610D01*
X10858Y8705D02*
Y8728D01*
X10868Y8703D02*
Y8728D01*
X10940Y8595D02*
X10944D01*
X10940Y8585D02*
X10944D01*
X10940Y8555D02*
Y8610D01*
Y8575D02*
X10944D01*
X10940Y8565D02*
X10944D01*
X10940Y8555D02*
X10944D01*
X10933Y8555D02*
X10940D01*
X10878Y8600D02*
Y8660D01*
X10884Y8555D02*
Y8565D01*
X10868Y8600D02*
Y8652D01*
X10858Y8600D02*
Y8650D01*
X10884Y8555D02*
X10889D01*
X10937Y8548D02*
Y8555D01*
X10868Y8540D02*
Y8565D01*
X10878Y8530D02*
Y8565D01*
X10842Y8713D02*
X10944D01*
X10848Y8704D02*
Y8728D01*
X10708D02*
X10944D01*
X10817Y8718D02*
X10842D01*
Y8644D02*
X10944D01*
X10842Y8634D02*
X10944D01*
X10824Y8624D02*
X10944D01*
X10838Y8718D02*
Y8728D01*
X10842Y8702D02*
Y8718D01*
X10828D02*
Y8728D01*
X10819Y8718D02*
Y8728D01*
X10842Y8633D02*
Y8653D01*
X10819Y8633D02*
X10842D01*
X10803Y8718D02*
X10817D01*
X10825Y8614D02*
X10944D01*
X10823Y8604D02*
X10884D01*
X10848Y8600D02*
Y8651D01*
X10821Y8600D02*
X10884D01*
X10784Y8565D02*
X10884D01*
X10858Y8550D02*
Y8565D01*
X10817Y8555D02*
X10884D01*
X10838Y8600D02*
Y8633D01*
X10848Y8553D02*
Y8565D01*
X10828Y8600D02*
Y8633D01*
X10838Y8553D02*
Y8565D01*
X10828Y8553D02*
Y8565D01*
X10819Y8554D02*
Y8565D01*
X10938Y8545D02*
X10944D01*
X10939Y8535D02*
X10944D01*
X10936Y8526D02*
X10944D01*
X10928Y8516D02*
X10944D01*
X10893Y8506D02*
X10944D01*
X10893Y8496D02*
X10944D01*
X10893Y8486D02*
X10944D01*
X10893Y8476D02*
X10944D01*
X10893Y8467D02*
X10944D01*
X10882Y8526D02*
X10886D01*
X10872Y8535D02*
X10883D01*
X10862Y8545D02*
X10884D01*
X10860Y8548D02*
X10887Y8520D01*
X10893Y8457D02*
X10944D01*
X10893Y8447D02*
X10944D01*
X10893Y8437D02*
X10944D01*
X10893Y8427D02*
X10944D01*
X10893Y8417D02*
X10944D01*
X10893Y8407D02*
X10944D01*
X10893Y8398D02*
X10944D01*
X10893Y8388D02*
X10944D01*
X10893Y8378D02*
X10944D01*
X10893Y8368D02*
X10944D01*
X10889Y8358D02*
X10944D01*
X10880Y8348D02*
X10944D01*
X10893Y8369D02*
Y8508D01*
X10857Y8396D02*
Y8500D01*
X10871Y8340D02*
X10887Y8356D01*
X10870Y8339D02*
X10944D01*
X10842Y8496D02*
X10857D01*
X10842Y8486D02*
X10857D01*
X10842Y8476D02*
X10857D01*
X10840Y8517D02*
X10857Y8500D01*
X10842Y8467D02*
X10857D01*
X10842Y8457D02*
X10857D01*
X10842Y8447D02*
X10857D01*
X10842Y8437D02*
X10857D01*
X10842Y8427D02*
X10857D01*
X10838Y8502D02*
Y8517D01*
X10828Y8502D02*
Y8517D01*
X10819Y8553D02*
X10847D01*
X10819Y8517D02*
X10840D01*
X10817Y8516D02*
X10841D01*
X10819Y8502D02*
Y8517D01*
X10743Y8506D02*
X10851D01*
X10817Y8502D02*
X10842D01*
Y8417D02*
X10857D01*
X10851Y8407D02*
X10857D01*
X10826Y8332D02*
X10860Y8335D01*
X10826Y8329D02*
X10944D01*
X10824Y8319D02*
X10944D01*
X10818Y8309D02*
X10944D01*
X10817Y8299D02*
X10944D01*
X10817Y8289D02*
X10944D01*
X10817Y8280D02*
X10944D01*
X10842Y8417D02*
Y8502D01*
X10848Y8411D02*
Y8509D01*
X10835Y8417D02*
X10842D01*
X10824Y8321D02*
X10826Y8332D01*
X10817Y8308D02*
X10819Y8311D01*
X10803Y8718D02*
X10817D01*
X10809D02*
Y8728D01*
X10799Y8718D02*
Y8728D01*
X10789Y8718D02*
Y8728D01*
X10779Y8718D02*
Y8728D01*
X10792Y8718D02*
X10803D01*
X10778D02*
X10792D01*
X10778D02*
X10792D01*
X10767D02*
X10778D01*
X10769D02*
Y8728D01*
X10759Y8718D02*
Y8728D01*
X10750Y8718D02*
Y8728D01*
X10708D02*
Y8846D01*
X10740Y8718D02*
Y8728D01*
X10753Y8718D02*
X10767D01*
X10753D02*
X10767D01*
X10742D02*
X10753D01*
X10730D02*
Y8728D01*
X10728Y8718D02*
X10742D01*
X10728D02*
X10742D01*
X10720D02*
Y8728D01*
X10710Y8718D02*
Y8728D01*
X10703Y8718D02*
X10728D01*
X10692Y8713D02*
X10703D01*
X10692Y8703D02*
X10703D01*
X10692Y8693D02*
X10703D01*
X10692Y8683D02*
X10703D01*
Y8633D02*
Y8718D01*
X10700Y8624D02*
Y8846D01*
X10691Y8718D02*
Y8846D01*
X10692Y8633D02*
Y8718D01*
Y8673D02*
X10703D01*
X10705Y8629D02*
Y8633D01*
X10692Y8663D02*
X10703D01*
X10692Y8654D02*
X10703D01*
X10681Y8718D02*
Y8846D01*
X10671Y8718D02*
Y8846D01*
X10661Y8718D02*
Y8846D01*
X10651Y8718D02*
Y8846D01*
X10641Y8718D02*
Y8846D01*
X10667Y8718D02*
X10692D01*
X10653D02*
X10667D01*
X10653D02*
X10667D01*
X10642D02*
X10653D01*
X10632D02*
Y8846D01*
X10628Y8718D02*
X10642D01*
X10622D02*
Y8846D01*
X10612Y8718D02*
Y8846D01*
X10628Y8718D02*
X10642D01*
X10617D02*
X10628D01*
X10603D02*
X10617D01*
X10603D02*
X10617D01*
X10692Y8644D02*
X10703D01*
X10692Y8634D02*
X10703D01*
X10691Y8536D02*
Y8633D01*
X10667D02*
X10692D01*
X10681Y8536D02*
Y8633D01*
X10671Y8536D02*
Y8633D01*
X10661Y8536D02*
Y8633D01*
X10653D02*
X10667D01*
X10653D02*
X10667D01*
X10642D02*
X10653D01*
X10651Y8536D02*
Y8633D01*
X10602Y8718D02*
Y8846D01*
X10628Y8633D02*
X10642D01*
X10641Y8536D02*
Y8633D01*
X10632Y8536D02*
Y8633D01*
X10628D02*
X10642D01*
X10617D02*
X10628D01*
X10809Y8561D02*
Y8565D01*
X10779Y8556D02*
Y8560D01*
X10775Y8556D02*
X10784Y8565D01*
X10775Y8555D02*
X10778D01*
X10809Y8502D02*
Y8510D01*
X10803Y8502D02*
X10817D01*
X10803D02*
X10817D01*
X10799D02*
Y8508D01*
X10740Y8548D02*
Y8551D01*
X10750Y8533D02*
Y8551D01*
X10735D02*
X10763D01*
X10749Y8535D02*
X10770D01*
X10751Y8526D02*
X10772D01*
X10742Y8545D02*
X10772D01*
X10749Y8516D02*
X10778D01*
X10792Y8502D02*
X10803D01*
X10789D02*
Y8509D01*
X10779Y8502D02*
Y8515D01*
X10778Y8502D02*
X10792D01*
X10769D02*
Y8552D01*
X10778Y8502D02*
X10792D01*
X10767D02*
X10778D01*
X10753D02*
X10767D01*
X10753D02*
X10767D01*
X10759D02*
Y8551D01*
X10750Y8502D02*
Y8518D01*
X10737Y8502D02*
X10753D01*
X10728Y8424D02*
Y8498D01*
X10720Y8424D02*
Y8498D01*
X10721Y8424D02*
X10728D01*
X10697Y8574D02*
X10715Y8556D01*
X10697Y8621D02*
X10705Y8629D01*
X10700Y8542D02*
Y8571D01*
X10710Y8550D02*
Y8561D01*
X10692Y8587D02*
Y8609D01*
X10622Y8536D02*
Y8633D01*
X10603D02*
X10617D01*
X10603D02*
X10617D01*
X10688Y8536D02*
X10698Y8538D01*
X10648Y8536D02*
X10688D01*
X10717Y8496D02*
X10728D01*
X10717Y8486D02*
X10728D01*
X10717Y8476D02*
X10728D01*
X10717Y8467D02*
X10728D01*
X10717Y8457D02*
X10728D01*
X10717Y8447D02*
X10728D01*
X10717Y8437D02*
X10728D01*
X10717Y8427D02*
X10728D01*
X10700Y8502D02*
X10708D01*
X10612Y8536D02*
Y8633D01*
X10602Y8536D02*
Y8633D01*
X10717Y8424D02*
Y8498D01*
X10700Y8502D02*
X10706Y8503D01*
X10927Y8051D02*
Y8515D01*
X10917Y8051D02*
Y8510D01*
X10907Y8051D02*
Y8510D01*
X10897Y8051D02*
Y8513D01*
X10879Y8051D02*
X10935D01*
Y8043D02*
X10944D01*
X10935Y8033D02*
X10944D01*
X10935Y8024D02*
X10944D01*
X10935Y8014D02*
X10944D01*
X10887Y8051D02*
Y8356D01*
X10878Y8037D02*
Y8346D01*
X10879Y8037D02*
Y8051D01*
X10858Y8049D02*
Y8335D01*
X10868Y8043D02*
Y8337D01*
X10867Y8043D02*
X10879D01*
X10872Y8037D02*
X10879D01*
X10944Y7626D02*
Y8728D01*
X10935Y7996D02*
Y8051D01*
X10937Y7626D02*
Y8527D01*
X10935Y8004D02*
X10944D01*
X10916Y7996D02*
X10935D01*
X10914Y7994D02*
X10944D01*
X10927Y7626D02*
Y7996D01*
X10884Y7984D02*
X10944D01*
X10907Y7856D02*
Y7992D01*
X10917Y7772D02*
Y7996D01*
X10884Y7992D02*
X10905D01*
X10897Y7871D02*
Y7992D01*
X10884Y7982D02*
Y7992D01*
X10887Y7878D02*
Y7992D01*
X10878Y7977D02*
Y7982D01*
X10868Y7977D02*
Y7982D01*
X10817Y8270D02*
X10944D01*
X10817Y8260D02*
X10944D01*
X10817Y8250D02*
X10944D01*
X10817Y8240D02*
X10944D01*
X10817Y8230D02*
X10944D01*
X10817Y8220D02*
X10944D01*
X10817Y8211D02*
X10944D01*
X10817Y8201D02*
X10944D01*
X10817Y8191D02*
X10944D01*
X10817Y8181D02*
X10944D01*
X10817Y8171D02*
X10944D01*
X10817Y8161D02*
X10944D01*
X10817Y8152D02*
X10944D01*
X10817Y8142D02*
X10944D01*
X10817Y8132D02*
X10944D01*
X10817Y8122D02*
X10944D01*
X10817Y8112D02*
X10944D01*
X10817Y8102D02*
X10944D01*
X10817Y8093D02*
X10944D01*
X10817Y8083D02*
X10944D01*
X10817Y8073D02*
X10944D01*
X10817Y8063D02*
X10944D01*
X10856Y8051D02*
X10865Y8045D01*
X10858Y7977D02*
Y7982D01*
X10853Y8053D02*
X10944D01*
X10836Y7982D02*
X10884D01*
X10848Y8056D02*
Y8334D01*
X10838Y8056D02*
Y8333D01*
X10828Y8056D02*
Y8332D01*
X10848Y7977D02*
Y7982D01*
X10838Y7977D02*
Y7982D01*
X10819Y8056D02*
X10842D01*
X10828Y7982D02*
X10836D01*
X10884Y7974D02*
X10944D01*
X10884Y7965D02*
X10944D01*
X10884Y7955D02*
X10944D01*
X10884Y7945D02*
X10944D01*
X10884Y7935D02*
X10944D01*
X10907Y7856D02*
X10944D01*
X10910Y7846D02*
X10944D01*
X10891Y7876D02*
X10944D01*
X10901Y7866D02*
X10944D01*
X10910Y7837D02*
X10944D01*
X10908Y7827D02*
X10944D01*
X10903Y7817D02*
X10944D01*
X10884Y7922D02*
Y7977D01*
X10894Y7807D02*
X10944D01*
X10894Y7797D02*
X10944D01*
X10894Y7787D02*
X10944D01*
X10894Y7778D02*
X10944D01*
X10918Y7768D02*
X10944D01*
X10918Y7758D02*
X10944D01*
X10918Y7748D02*
X10944D01*
X10894Y7772D02*
X10918D01*
Y7738D02*
X10944D01*
X10918Y7728D02*
X10944D01*
X10918Y7719D02*
X10944D01*
X10918Y7709D02*
X10944D01*
X10918Y7699D02*
X10944D01*
X10907Y7772D02*
Y7825D01*
X10918Y7697D02*
Y7772D01*
X10897D02*
Y7810D01*
X10894Y7772D02*
Y7807D01*
X10917Y7626D02*
Y7697D01*
X10907Y7626D02*
Y7697D01*
X10897Y7626D02*
Y7697D01*
X10887Y7626D02*
Y7697D01*
X10884Y7925D02*
X10944D01*
X10874Y7922D02*
X10884D01*
X10878Y7882D02*
Y7922D01*
X10836Y7977D02*
X10884D01*
X10874Y7911D02*
Y7922D01*
Y7915D02*
X10944D01*
X10873Y7906D02*
X10944D01*
X10866Y7896D02*
X10944D01*
X10856Y7886D02*
X10944D01*
X10828Y7982D02*
X10836D01*
X10828Y7977D02*
X10836D01*
X10780Y7982D02*
X10828D01*
Y7977D02*
X10836D01*
X10868Y7883D02*
Y7897D01*
X10858Y7882D02*
Y7887D01*
X10851Y7880D02*
X10868Y7898D01*
X10852Y7697D02*
Y7727D01*
X10845Y7734D02*
X10852Y7727D01*
Y7697D02*
X10918D01*
X10878Y7626D02*
Y7697D01*
X10868Y7626D02*
Y7697D01*
X10858Y7626D02*
Y7697D01*
X10708Y7626D02*
X10944D01*
X10836Y7754D02*
Y7811D01*
X10824Y7817D02*
X10831D01*
X10815Y7807D02*
X10836D01*
X10848Y7626D02*
Y7731D01*
X10838Y7626D02*
Y7744D01*
X10819Y8057D02*
Y8310D01*
X10817Y8059D02*
Y8308D01*
X10743Y8053D02*
Y8109D01*
X10817Y8059D02*
X10819Y8056D01*
X10763Y7994D02*
X10780D01*
X10733Y8053D02*
X10743D01*
X10735Y7998D02*
X10752D01*
X10740Y8053D02*
Y8108D01*
X10730Y8003D02*
Y8107D01*
X10733Y8000D02*
Y8053D01*
X10710Y8021D02*
Y8107D01*
X10720Y8013D02*
Y8107D01*
X10729Y8004D02*
X10733D01*
Y8000D02*
X10735Y7998D01*
X10719Y8014D02*
X10733D01*
X10712Y8021D02*
X10733Y8000D01*
X10828Y7977D02*
Y7982D01*
X10780D02*
Y7994D01*
X10819Y7977D02*
Y7982D01*
X10736Y7984D02*
X10780D01*
X10779Y7935D02*
Y7994D01*
X10809Y7977D02*
Y7982D01*
X10799Y7977D02*
Y7982D01*
X10789Y7977D02*
Y7982D01*
X10780Y7977D02*
X10828D01*
X10750Y7906D02*
Y7998D01*
X10736Y7950D02*
Y7997D01*
X10740Y7896D02*
Y7998D01*
X10780Y7936D02*
Y7977D01*
X10769Y7926D02*
Y7994D01*
X10736Y7994D02*
X10759D01*
X10759Y7916D02*
Y7994D01*
X10648Y8102D02*
X10743D01*
X10652Y8107D02*
X10734D01*
X10638Y8093D02*
X10743D01*
X10628Y8083D02*
X10743D01*
X10625Y8073D02*
X10743D01*
X10625Y8063D02*
X10743D01*
X10625Y8053D02*
X10733D01*
X10625Y8043D02*
X10733D01*
X10625Y8033D02*
X10733D01*
X10615Y8120D02*
X10621Y8126D01*
X10615Y8120D02*
Y8124D01*
X10609Y8114D02*
X10615Y8120D01*
X10625Y8079D02*
X10652Y8107D01*
X10602Y8107D02*
Y8114D01*
X10594Y8099D02*
X10609Y8114D01*
X10700Y8021D02*
Y8107D01*
X10691Y8021D02*
Y8107D01*
X10681Y8021D02*
Y8107D01*
X10671Y8021D02*
Y8107D01*
X10661Y8019D02*
Y8107D01*
X10664Y8021D02*
X10712D01*
X10640Y7997D02*
X10664Y8021D01*
X10625Y8024D02*
X10733D01*
X10625Y8014D02*
X10656D01*
X10651Y8009D02*
Y8106D01*
X10641Y7999D02*
Y8096D01*
X10632Y7955D02*
Y8086D01*
X10625Y7950D02*
Y8079D01*
Y8004D02*
X10646D01*
X10640Y7963D02*
Y7997D01*
X10625Y7994D02*
X10640D01*
X10625Y7984D02*
X10640D01*
X10736Y7974D02*
X10780D01*
X10736Y7965D02*
X10780D01*
X10736Y7955D02*
X10780D01*
X10731Y7945D02*
X10780D01*
X10721Y7935D02*
X10779D01*
X10745Y7817D02*
X10753D01*
X10736Y7807D02*
X10761D01*
X10683Y7925D02*
X10769D01*
X10725Y7881D02*
X10780Y7936D01*
X10730Y7886D02*
Y7944D01*
X10720Y7882D02*
Y7934D01*
X10712Y7926D02*
X10736Y7950D01*
X10683Y7926D02*
X10712D01*
X10710Y7883D02*
Y7926D01*
X10700Y7882D02*
Y7926D01*
X10691Y7879D02*
Y7926D01*
X10681Y7872D02*
Y7923D01*
X10828Y7626D02*
Y7822D01*
X10819Y7626D02*
Y7810D01*
X10809Y7626D02*
Y7803D01*
X10759Y7626D02*
Y7809D01*
X10799Y7626D02*
Y7799D01*
X10789Y7626D02*
Y7798D01*
X10779Y7626D02*
Y7799D01*
X10769Y7626D02*
Y7802D01*
X10750Y7626D02*
Y7822D01*
X10740Y7626D02*
Y7810D01*
X10730Y7626D02*
Y7803D01*
X10691Y7508D02*
Y7802D01*
X10720Y7626D02*
Y7799D01*
X10710Y7626D02*
Y7798D01*
X10708Y7508D02*
Y7626D01*
X10700Y7508D02*
Y7799D01*
X10673Y7915D02*
X10759D01*
X10663Y7906D02*
X10749D01*
X10661Y7871D02*
Y7903D01*
X10659Y7901D02*
X10683Y7926D01*
X10651Y7896D02*
X10739D01*
X10655Y7876D02*
X10686D01*
X10651Y7878D02*
Y7896D01*
X10625Y7974D02*
X10640D01*
X10627Y7950D02*
X10640Y7963D01*
X10625Y7965D02*
X10640D01*
X10625Y7955D02*
X10632D01*
X10632Y7883D02*
Y7893D01*
X10641Y7882D02*
Y7893D01*
X10622Y7882D02*
Y7893D01*
X10612Y7879D02*
Y7893D01*
X10671Y7859D02*
Y7913D01*
X10665Y7866D02*
X10675D01*
X10681Y7508D02*
Y7809D01*
X10671Y7508D02*
Y7822D01*
X10667Y7817D02*
X10674D01*
X10658Y7807D02*
X10683D01*
X10661Y7508D02*
Y7810D01*
X10651Y7508D02*
Y7803D01*
X10602Y7872D02*
Y7893D01*
X10612Y7508D02*
Y7802D01*
X10641Y7508D02*
Y7799D01*
X10632Y7508D02*
Y7798D01*
X10622Y7508D02*
Y7799D01*
X10602Y7508D02*
Y7802D01*
X10592Y8718D02*
Y8846D01*
X10582Y8718D02*
Y8846D01*
X10553Y8703D02*
Y8846D01*
X10474Y8703D02*
Y8846D01*
X10464Y8703D02*
Y8846D01*
X10454Y8703D02*
Y8846D01*
X10445Y8703D02*
Y8846D01*
X10435Y8703D02*
Y8846D01*
X10425Y8703D02*
Y8846D01*
X10415Y8703D02*
Y8846D01*
X10405Y8703D02*
Y8846D01*
X10395Y8703D02*
Y8846D01*
X10385Y8703D02*
Y8846D01*
X10376Y8703D02*
Y8846D01*
X10366Y8703D02*
Y8846D01*
X10356Y8703D02*
Y8846D01*
X10346Y8703D02*
Y8846D01*
X10336Y8703D02*
Y8846D01*
X10563Y8703D02*
Y8846D01*
X10543Y8700D02*
Y8846D01*
X10572Y8699D02*
Y8846D01*
X10533Y8691D02*
Y8846D01*
X10523Y8535D02*
Y8846D01*
X10513Y8535D02*
Y8846D01*
X10504Y8535D02*
Y8846D01*
X10484Y8702D02*
Y8846D01*
X10494Y8691D02*
Y8846D01*
X10326Y8703D02*
Y8846D01*
X10317Y8703D02*
Y8846D01*
X10307Y8703D02*
Y8846D01*
X10297Y8703D02*
Y8846D01*
X10287Y8703D02*
Y8846D01*
X10277Y8703D02*
Y8846D01*
X10267Y8703D02*
Y8846D01*
X10258Y8703D02*
Y8846D01*
X10157D02*
X10708D01*
X10248Y8703D02*
Y8846D01*
X10238Y8703D02*
Y8846D01*
X10157Y8841D02*
X10708D01*
X10157Y8831D02*
X10708D01*
X10157Y8821D02*
X10708D01*
X10157Y8811D02*
X10708D01*
X9409Y8801D02*
X10708D01*
X9409Y8791D02*
X10708D01*
X10228Y8703D02*
Y8846D01*
X10218Y8703D02*
Y8846D01*
X10208Y8703D02*
Y8846D01*
X10198Y8703D02*
Y8846D01*
X10189Y8703D02*
Y8846D01*
X10179Y8703D02*
Y8846D01*
X10157Y8807D02*
Y8846D01*
X9921Y8807D02*
X10157D01*
X10169Y8703D02*
Y8846D01*
X10159Y8703D02*
Y8846D01*
X10149Y8703D02*
Y8807D01*
X10139Y8703D02*
Y8807D01*
X10130Y8703D02*
Y8807D01*
X10120Y8703D02*
Y8807D01*
X10110Y8703D02*
Y8807D01*
X10100Y8703D02*
Y8807D01*
X10090Y8703D02*
Y8807D01*
X10080Y8703D02*
Y8807D01*
X10070Y8703D02*
Y8807D01*
X10061Y8703D02*
Y8807D01*
X10051Y8703D02*
Y8807D01*
X10041Y8703D02*
Y8807D01*
X10031Y8703D02*
Y8807D01*
X10021Y8703D02*
Y8807D01*
X10011Y8703D02*
Y8807D01*
X10578Y8718D02*
X10603D01*
X10578Y8694D02*
Y8718D01*
Y8633D02*
X10603D01*
X10564Y8703D02*
X10578D01*
X10573Y8654D02*
X10578D01*
X10495Y8624D02*
X10700D01*
X10495Y8614D02*
X10693D01*
X10495Y8604D02*
X10692D01*
X10495Y8595D02*
X10692D01*
X10493Y8693D02*
X10535D01*
X10495Y8683D02*
X10530D01*
X10495Y8673D02*
X10529D01*
X10495Y8663D02*
X10532D01*
X10495Y8654D02*
X10540D01*
X10578Y8633D02*
Y8658D01*
X10495Y8644D02*
X10578D01*
X10495Y8634D02*
X10578D01*
X10592Y8535D02*
Y8633D01*
X10582Y8535D02*
Y8633D01*
X10502Y8535D02*
X10648Y8536D01*
X10495Y8585D02*
X10692D01*
X10495Y8575D02*
X10696D01*
X10592Y8097D02*
Y8114D01*
X10558D02*
X10609D01*
X10572Y8535D02*
Y8653D01*
X10543Y8535D02*
Y8651D01*
X10533Y8535D02*
Y8661D01*
X10495Y8536D02*
Y8685D01*
X10563Y8535D02*
Y8649D01*
X10558Y8114D02*
Y8156D01*
X10553Y8535D02*
Y8648D01*
X10502Y8535D02*
X10544D01*
X9252Y8782D02*
X10708D01*
X9252Y8772D02*
X10708D01*
X9252Y8762D02*
X10708D01*
X9252Y8752D02*
X10708D01*
X9252Y8742D02*
X10708D01*
X10495Y8565D02*
X10706D01*
X10495Y8555D02*
X10716D01*
X9252Y8732D02*
X10708D01*
X9252Y8722D02*
X10944D01*
X10481Y8703D02*
X10550D01*
X9252Y8713D02*
X10578D01*
X10495Y8545D02*
X10703D01*
X9486Y8703D02*
X10477D01*
X10495Y8156D02*
X10558D01*
X10495Y8112D02*
X10607D01*
X10495Y8102D02*
X10597D01*
X10495Y8093D02*
X10590D01*
X10495Y8083D02*
X10589D01*
X10495Y8073D02*
X10589D01*
X10495Y8063D02*
X10589D01*
X10495Y8053D02*
X10589D01*
X10495Y8043D02*
X10589D01*
X10495Y8033D02*
X10589D01*
X10495Y8152D02*
X10558D01*
X10495Y8142D02*
X10558D01*
X10495Y8132D02*
X10558D01*
X10495Y8122D02*
X10558D01*
X10495Y8024D02*
X10589D01*
X10495Y8014D02*
X10589D01*
X10495Y8004D02*
X10589D01*
X10495Y7994D02*
X10589D01*
X10002Y8703D02*
Y8807D01*
X9992Y8703D02*
Y8807D01*
X9982Y8703D02*
Y8807D01*
X9921D02*
Y8846D01*
X9972Y8703D02*
Y8807D01*
X9962Y8703D02*
Y8807D01*
X9952Y8703D02*
Y8807D01*
X9943Y8703D02*
Y8807D01*
X9933Y8703D02*
Y8807D01*
X9913Y8703D02*
Y8846D01*
X9903Y8703D02*
Y8846D01*
X9893Y8703D02*
Y8846D01*
X9883Y8703D02*
Y8846D01*
X9874Y8703D02*
Y8846D01*
X9923Y8703D02*
Y8807D01*
X9864Y8703D02*
Y8846D01*
X9854Y8703D02*
Y8846D01*
X9844Y8703D02*
Y8846D01*
X9834Y8703D02*
Y8846D01*
X9824Y8703D02*
Y8846D01*
X9815Y8703D02*
Y8846D01*
X9805Y8703D02*
Y8846D01*
X9795Y8703D02*
Y8846D01*
X9785Y8703D02*
Y8846D01*
X9775Y8703D02*
Y8846D01*
X9765Y8703D02*
Y8846D01*
X9756Y8703D02*
Y8846D01*
X9746Y8703D02*
Y8846D01*
X9736Y8703D02*
Y8846D01*
X9726Y8703D02*
Y8846D01*
X9716Y8703D02*
Y8846D01*
X9706Y8703D02*
Y8846D01*
X9696Y8703D02*
Y8846D01*
X9687Y8703D02*
Y8846D01*
X9677Y8703D02*
Y8846D01*
X9667Y8703D02*
Y8846D01*
X9657Y8703D02*
Y8846D01*
X9647Y8703D02*
Y8846D01*
X9409D02*
X9921D01*
X9637Y8703D02*
Y8846D01*
X9409Y8841D02*
X9921D01*
X9409Y8831D02*
X9921D01*
X9409Y8821D02*
X9921D01*
X9409Y8811D02*
X9921D01*
X9628Y8703D02*
Y8846D01*
X9618Y8703D02*
Y8846D01*
X9608Y8703D02*
Y8846D01*
X9598Y8703D02*
Y8846D01*
X9588Y8703D02*
Y8846D01*
X9578Y8703D02*
Y8846D01*
X9409Y8787D02*
Y8846D01*
X9252Y8787D02*
X9409D01*
X9569Y8703D02*
Y8846D01*
X9559Y8703D02*
Y8846D01*
X9549Y8703D02*
Y8846D01*
X9539Y8703D02*
Y8846D01*
X9529Y8703D02*
Y8846D01*
X9519Y8703D02*
Y8846D01*
X9509Y8703D02*
Y8846D01*
X9500Y8703D02*
Y8846D01*
X9490Y8703D02*
Y8846D01*
X9480Y8702D02*
Y8846D01*
X9470Y8694D02*
Y8846D01*
X9252Y8703D02*
X9482D01*
X9252Y8693D02*
X9470D01*
X9252Y8683D02*
X9468D01*
X9252Y8673D02*
X9468D01*
X9252Y8663D02*
X9468D01*
X9252Y8654D02*
X9468D01*
X9252Y8644D02*
X9468D01*
X9252Y8634D02*
X9468D01*
X9252Y8624D02*
X9468D01*
X9252Y8614D02*
X9468D01*
X9252Y8604D02*
X9468D01*
X9252Y8595D02*
X9468D01*
X9252Y8585D02*
X9468D01*
X9252Y8575D02*
X9468D01*
X9252Y8565D02*
X9468D01*
X9252Y8555D02*
X9468D01*
X9252Y8545D02*
X9468D01*
X9252Y8535D02*
X9468D01*
X9252Y8526D02*
X9468D01*
X9252Y8516D02*
X9468D01*
X9252Y8506D02*
X9468D01*
X9252Y8496D02*
X9468D01*
X9252Y8486D02*
X9468D01*
X9252Y8476D02*
X9468D01*
X9252Y8467D02*
X9468D01*
X9252Y8457D02*
X9468D01*
X9252Y8447D02*
X9468D01*
X9252Y8437D02*
X9468D01*
X9252Y8427D02*
X9468D01*
X9252Y8417D02*
X9468D01*
X9252Y8407D02*
X9468D01*
X9252Y8398D02*
X9468D01*
X9252Y8388D02*
X9468D01*
X9252Y8378D02*
X9468D01*
X9252Y8368D02*
X9468D01*
X9252Y8358D02*
X9468D01*
X9252Y8348D02*
X9468D01*
X9252Y8339D02*
X9468D01*
X9252Y8329D02*
X9468D01*
X9252Y8319D02*
X9468D01*
X9252Y8309D02*
X9468D01*
X9252Y8299D02*
X9468D01*
X9252Y8289D02*
X9468D01*
X9252Y8280D02*
X9468D01*
X9252Y8270D02*
X9468D01*
X9252Y8260D02*
X9468D01*
X9252Y8250D02*
X9468D01*
X9252Y8240D02*
X9468D01*
X9252Y8230D02*
X9468D01*
X9252Y8220D02*
X9468D01*
X9252Y8211D02*
X9468D01*
X9252Y8201D02*
X9468D01*
X9252Y8191D02*
X9468D01*
X9252Y8181D02*
X9468D01*
X9252Y8171D02*
X9468D01*
X9252Y8161D02*
X9468D01*
X9252Y8152D02*
X9468D01*
X9252Y8142D02*
X9468D01*
X9252Y8132D02*
X9468D01*
X9252Y8122D02*
X9468D01*
X9252Y8112D02*
X9468D01*
X9252Y8102D02*
X9468D01*
X9252Y8093D02*
X9468D01*
X9252Y8083D02*
X9468D01*
X9252Y8073D02*
X9468D01*
X9252Y8063D02*
X9468D01*
X9252Y8053D02*
X9468D01*
X9252Y8043D02*
X9468D01*
X9252Y8033D02*
X9468D01*
X9252Y8024D02*
X9468D01*
X9252Y8014D02*
X9468D01*
X9252Y8004D02*
X9468D01*
X9252Y7994D02*
X9468D01*
X10589Y7950D02*
Y8087D01*
X10582Y7954D02*
Y8114D01*
X10583Y7950D02*
Y7954D01*
X10572D02*
Y8114D01*
X10583Y7950D02*
X10589D01*
X10583Y7893D02*
X10639D01*
X10583Y7889D02*
Y7893D01*
X10582Y7874D02*
Y7889D01*
X10572Y7874D02*
Y7889D01*
X10553Y7954D02*
Y8156D01*
X10543Y7954D02*
Y8156D01*
X10533Y7954D02*
Y8156D01*
X10523Y7954D02*
Y8156D01*
X10513Y7954D02*
Y8156D01*
X10563Y7954D02*
Y8114D01*
Y7874D02*
Y7889D01*
X10553Y7874D02*
Y7889D01*
X10543Y7874D02*
Y7889D01*
X10592Y7859D02*
Y7893D01*
X10583Y7859D02*
Y7874D01*
Y7866D02*
X10596D01*
X10583Y7859D02*
X10592D01*
X10592Y7508D02*
Y7802D01*
X10582Y7508D02*
Y7802D01*
X10533D02*
X10612D01*
X10572Y7508D02*
Y7802D01*
X10533Y7874D02*
Y7889D01*
X10523Y7874D02*
Y7889D01*
Y7508D02*
Y7804D01*
X10563Y7508D02*
Y7802D01*
X10553Y7508D02*
Y7802D01*
X10543Y7508D02*
Y7802D01*
X10533Y7508D02*
Y7802D01*
X10495Y7984D02*
X10589D01*
X10495Y7974D02*
X10589D01*
X10507Y7954D02*
X10583D01*
X10495Y7965D02*
X10589D01*
X10495Y7955D02*
X10589D01*
X10507Y7889D02*
X10583D01*
X10507Y7874D02*
X10583D01*
X10495Y7886D02*
X10730D01*
X10495Y7876D02*
X10607D01*
X10495Y7945D02*
X10507D01*
Y7889D02*
Y7954D01*
X10495Y7935D02*
X10507D01*
X10495Y7925D02*
X10507D01*
X10495Y7915D02*
X10507D01*
X10513Y7874D02*
Y7889D01*
X10495Y7906D02*
X10507D01*
X10495Y7896D02*
X10507D01*
Y7809D02*
X10514D01*
X10495Y7866D02*
X10507D01*
X10513Y7508D02*
Y7809D01*
X10495Y7856D02*
X10507D01*
X10495Y7846D02*
X10507D01*
X10495Y7807D02*
X10516D01*
X10495Y7797D02*
X10836D01*
X10495Y7787D02*
X10836D01*
X10495Y7778D02*
X10836D01*
X10507Y7843D02*
Y7874D01*
X10504Y7508D02*
Y8156D01*
X10495Y7662D02*
Y8156D01*
Y7837D02*
X10505D01*
X10507Y7809D02*
Y7818D01*
X10495Y7827D02*
X10504D01*
X10495Y7817D02*
X10507D01*
X10495Y7719D02*
X10852D01*
X10495Y7728D02*
X10851D01*
X10495Y7709D02*
X10852D01*
X10495Y7699D02*
X10852D01*
X10495Y7689D02*
X10944D01*
X10495Y7679D02*
X10944D01*
X10495Y7669D02*
X10944D01*
X10495Y7659D02*
X10944D01*
X10490Y7650D02*
X10944D01*
X10495Y7768D02*
X10836D01*
X10495Y7758D02*
X10836D01*
X10495Y7748D02*
X10837D01*
X10495Y7738D02*
X10841D01*
X10494Y7508D02*
Y7656D01*
X10484Y7508D02*
Y7645D01*
X10474Y7508D02*
Y7644D01*
X10464Y7508D02*
Y7644D01*
X10454Y7508D02*
Y7644D01*
X10445Y7508D02*
Y7644D01*
X10435Y7508D02*
Y7644D01*
X10425Y7508D02*
Y7644D01*
X10415Y7508D02*
Y7644D01*
X10405Y7508D02*
Y7644D01*
X10395Y7508D02*
Y7644D01*
X10385Y7508D02*
Y7644D01*
X10376Y7508D02*
Y7644D01*
X10366Y7508D02*
Y7644D01*
X10356Y7508D02*
Y7644D01*
X10346Y7508D02*
Y7644D01*
X10336Y7508D02*
Y7644D01*
X10326Y7508D02*
Y7644D01*
X10317Y7508D02*
Y7644D01*
X10307Y7508D02*
Y7644D01*
X9252Y7640D02*
X10944D01*
X9252Y7630D02*
X10944D01*
X9252Y7620D02*
X10708D01*
X9252Y7610D02*
X10708D01*
X9252Y7600D02*
X10708D01*
X9252Y7591D02*
X10708D01*
X9409Y7561D02*
X10708D01*
X9252Y7581D02*
X10708D01*
X9252Y7571D02*
X10708D01*
X10149Y7547D02*
Y7644D01*
X9921Y7547D02*
X10157D01*
X9486Y7644D02*
X10477D01*
X9409Y7551D02*
X10708D01*
X10157Y7541D02*
X10708D01*
X10157Y7532D02*
X10708D01*
X10157Y7522D02*
X10708D01*
X10157Y7512D02*
X10708D01*
X10297Y7508D02*
Y7644D01*
X10287Y7508D02*
Y7644D01*
X10277Y7508D02*
Y7644D01*
X10267Y7508D02*
Y7644D01*
X10258Y7508D02*
Y7644D01*
X10248Y7508D02*
Y7644D01*
X10238Y7508D02*
Y7644D01*
X10228Y7508D02*
Y7644D01*
X10157Y7508D02*
X10708D01*
X10218D02*
Y7644D01*
X10208Y7508D02*
Y7644D01*
X10198Y7508D02*
Y7644D01*
X10189Y7508D02*
Y7644D01*
X10179Y7508D02*
Y7644D01*
X10169Y7508D02*
Y7644D01*
X10159Y7508D02*
Y7644D01*
X10157Y7508D02*
Y7547D01*
X9401Y7567D02*
Y8787D01*
X9391Y7567D02*
Y8787D01*
X9382Y7567D02*
Y8787D01*
X9372Y7567D02*
Y8787D01*
X9362Y7567D02*
Y8787D01*
X9468Y7662D02*
Y8685D01*
X9252Y7984D02*
X9468D01*
X9352Y7567D02*
Y8787D01*
X9342Y7567D02*
Y8787D01*
X9332Y7567D02*
Y8787D01*
X9322Y7567D02*
Y8787D01*
X9313Y7567D02*
Y8787D01*
X9303Y7567D02*
Y8787D01*
X9293Y7567D02*
Y8787D01*
X9283Y7567D02*
Y8787D01*
X9273Y7567D02*
Y8787D01*
X9263Y7567D02*
Y8787D01*
X10139Y7547D02*
Y7644D01*
X10130Y7547D02*
Y7644D01*
X10120Y7547D02*
Y7644D01*
X10110Y7547D02*
Y7644D01*
X9470Y7508D02*
Y7653D01*
X10100Y7547D02*
Y7644D01*
X10090Y7547D02*
Y7644D01*
X10080Y7547D02*
Y7644D01*
X10070Y7547D02*
Y7644D01*
X9460Y7508D02*
Y8846D01*
X9450Y7508D02*
Y8846D01*
X9441Y7508D02*
Y8846D01*
X9431Y7508D02*
Y8846D01*
X9421Y7508D02*
Y8846D01*
X9411Y7508D02*
Y8846D01*
X9254Y7567D02*
Y8787D01*
X9252Y7567D02*
Y8787D01*
Y7974D02*
X9468D01*
X9252Y7965D02*
X9468D01*
X9252Y7955D02*
X9468D01*
X9252Y7945D02*
X9468D01*
X9252Y7935D02*
X9468D01*
X9252Y7925D02*
X9468D01*
X9252Y7915D02*
X9468D01*
X9252Y7906D02*
X9468D01*
X9252Y7896D02*
X9468D01*
X9252Y7886D02*
X9468D01*
X9252Y7876D02*
X9468D01*
X9252Y7866D02*
X9468D01*
X9252Y7856D02*
X9468D01*
X9252Y7846D02*
X9468D01*
X9252Y7837D02*
X9468D01*
X9252Y7827D02*
X9468D01*
X9252Y7817D02*
X9468D01*
X9252Y7807D02*
X9468D01*
X9252Y7797D02*
X9468D01*
X9252Y7787D02*
X9468D01*
X9252Y7778D02*
X9468D01*
X9252Y7768D02*
X9468D01*
X9252Y7758D02*
X9468D01*
X9252Y7748D02*
X9468D01*
X9252Y7738D02*
X9468D01*
X9252Y7650D02*
X9473D01*
X9252Y7728D02*
X9468D01*
X9252Y7719D02*
X9468D01*
X9252Y7709D02*
X9468D01*
X9252Y7699D02*
X9468D01*
X9252Y7689D02*
X9468D01*
X9252Y7679D02*
X9468D01*
X9252Y7669D02*
X9468D01*
X9252Y7659D02*
X9468D01*
X10061Y7547D02*
Y7644D01*
X10051Y7547D02*
Y7644D01*
X10041Y7547D02*
Y7644D01*
X10031Y7547D02*
Y7644D01*
X10021Y7547D02*
Y7644D01*
X10011Y7547D02*
Y7644D01*
X10002Y7547D02*
Y7644D01*
X9992Y7547D02*
Y7644D01*
X9982Y7547D02*
Y7644D01*
X9972Y7547D02*
Y7644D01*
X9962Y7547D02*
Y7644D01*
X9952Y7547D02*
Y7644D01*
X9943Y7547D02*
Y7644D01*
X9933Y7547D02*
Y7644D01*
X9923Y7547D02*
Y7644D01*
X9921Y7508D02*
Y7547D01*
X9913Y7508D02*
Y7644D01*
X9903Y7508D02*
Y7644D01*
X9893Y7508D02*
Y7644D01*
X9883Y7508D02*
Y7644D01*
X9874Y7508D02*
Y7644D01*
X9864Y7508D02*
Y7644D01*
X9854Y7508D02*
Y7644D01*
X9844Y7508D02*
Y7644D01*
X9834Y7508D02*
Y7644D01*
X9824Y7508D02*
Y7644D01*
X9815Y7508D02*
Y7644D01*
X9805Y7508D02*
Y7644D01*
X9795Y7508D02*
Y7644D01*
X9785Y7508D02*
Y7644D01*
X9775Y7508D02*
Y7644D01*
X9765Y7508D02*
Y7644D01*
X9756Y7508D02*
Y7644D01*
X9746Y7508D02*
Y7644D01*
X9736Y7508D02*
Y7644D01*
X9726Y7508D02*
Y7644D01*
X9716Y7508D02*
Y7644D01*
X9706Y7508D02*
Y7644D01*
X9696Y7508D02*
Y7644D01*
X9409Y7541D02*
X9921D01*
X9409Y7532D02*
X9921D01*
X9409Y7522D02*
X9921D01*
X9409Y7512D02*
X9921D01*
X9687Y7508D02*
Y7644D01*
X9677Y7508D02*
Y7644D01*
X9667Y7508D02*
Y7644D01*
X9657Y7508D02*
Y7644D01*
X9647Y7508D02*
Y7644D01*
X9637Y7508D02*
Y7644D01*
X9252Y7567D02*
X9409D01*
X9628Y7508D02*
Y7644D01*
X9618Y7508D02*
Y7644D01*
X9608Y7508D02*
Y7644D01*
X9598Y7508D02*
Y7644D01*
X9588Y7508D02*
Y7644D01*
X9578Y7508D02*
Y7644D01*
X9569Y7508D02*
Y7644D01*
X9559Y7508D02*
Y7644D01*
X9549Y7508D02*
Y7644D01*
X9409Y7508D02*
X9921D01*
X9539D02*
Y7644D01*
X9529Y7508D02*
Y7644D01*
X9519Y7508D02*
Y7644D01*
X9509Y7508D02*
Y7644D01*
X9500Y7508D02*
Y7644D01*
X9490Y7508D02*
Y7644D01*
X9480Y7508D02*
Y7645D01*
X9409Y7508D02*
Y7567D01*
X10557Y8676D02*
X10598D01*
X10690Y8518D02*
X10723Y8526D01*
X10648Y8518D02*
X10690D01*
X10763Y8569D02*
X10777Y8583D01*
X10728Y8569D02*
X10763D01*
X10710Y8587D02*
X10728Y8569D01*
X10710Y8587D02*
Y8609D01*
X10722Y8621D01*
X10723D01*
X10748Y8604D02*
X10748Y8604D01*
X10748Y8604D02*
Y8676D01*
X10815Y8375D02*
X10830Y8390D01*
X10798Y8369D02*
X10815Y8375D01*
X10875Y8369D02*
Y8508D01*
X10810Y8039D02*
X10843D01*
X10842D02*
X10856Y8030D01*
X10847Y8535D02*
X10875Y8508D01*
X10798Y8535D02*
X10847D01*
X10807Y8324D02*
X10811Y8349D01*
X10859Y8353D01*
X10875Y8369D01*
X10607Y7922D02*
Y8087D01*
X10777Y8583D02*
X10912D01*
X10723Y8621D02*
Y8676D01*
X10798Y8616D02*
Y8676D01*
X10854D02*
X10856Y8678D01*
X10823Y8676D02*
X10854D01*
X10688Y8374D02*
X10721Y8407D01*
X10755D01*
X10773Y8424D01*
Y8459D01*
X10615Y8405D02*
X10648D01*
X10673Y8429D01*
Y8459D01*
X10496Y8518D02*
X10648Y8518D01*
Y8459D02*
Y8518D01*
X10748Y8676D02*
X10773D01*
X10587Y8141D02*
X10611D01*
X10625Y8155D01*
Y8258D01*
X10606Y8277D02*
X10625Y8258D01*
X10587Y8277D02*
X10606D01*
X10571Y8190D02*
X10587Y8206D01*
X10571Y8174D02*
Y8190D01*
X10532Y8209D02*
Y8277D01*
X10495Y8174D02*
X10571D01*
X10856Y7911D02*
Y7950D01*
Y8010D02*
X10905D01*
X10763Y8012D02*
X10806D01*
X10663Y7974D02*
X10691D01*
X10911Y8538D02*
Y8581D01*
X10544Y8372D02*
X10691Y8374D01*
X10543Y8335D02*
X10544Y8372D01*
X10906Y7912D02*
Y7954D01*
X10740Y7918D02*
X10761Y7966D01*
X10597Y8337D02*
X10628D01*
X10691Y8274D01*
X10495Y8174D02*
X10496Y8519D01*
X10759Y8174D02*
Y8366D01*
X10734Y8125D02*
X10759Y8174D01*
X10645Y8125D02*
X10734D01*
X10607Y8087D02*
X10645Y8125D01*
X10788Y8345D02*
X10798Y8369D01*
X10777Y8333D02*
X10788Y8345D01*
X10777Y8133D02*
Y8333D01*
X10761Y8118D02*
X10777Y8133D01*
X10761Y8026D02*
Y8118D01*
X10799Y8316D02*
X10807Y8324D01*
X10799Y8054D02*
Y8316D01*
Y8054D02*
X10810Y8039D01*
X10856Y8010D02*
Y8030D01*
X10788Y7843D02*
X10856Y7911D01*
X10808Y7939D02*
Y7950D01*
X10710Y7841D02*
X10808Y7939D01*
X9920Y7544D02*
X10156D01*
X9920Y7505D02*
Y7544D01*
Y8804D02*
X10156D01*
X9920D02*
Y8843D01*
X10156Y8804D02*
Y8843D01*
Y7505D02*
X10708D01*
X10156Y8843D02*
X10708D01*
Y7505D02*
Y7623D01*
Y8725D02*
Y8843D01*
Y7623D02*
X10944D01*
X10708Y8725D02*
X10944D01*
X9408Y8784D02*
Y8843D01*
Y7505D02*
Y7564D01*
X9251D02*
X9408D01*
X9251Y8784D02*
X9408D01*
X9251Y7564D02*
Y8784D01*
X9408Y8843D02*
X9920D01*
X9408Y7505D02*
X9920D01*
X10156D02*
Y7544D01*
X10477Y7662D02*
Y8685D01*
X9486Y7662D02*
Y8685D01*
X10477D01*
X9486Y7662D02*
X10477D01*
X10826Y8331D02*
X10944D01*
X10826Y8055D02*
X10944D01*
X10826D02*
Y8331D01*
X10944D02*
Y8725D01*
Y7623D02*
Y8055D01*
D11*
X10823Y8676D02*
D03*
X10798D02*
D03*
X10773D02*
D03*
X10748D02*
D03*
X10723D02*
D03*
X10698D02*
D03*
X10673D02*
D03*
X10648D02*
D03*
X10623D02*
D03*
X10823Y8459D02*
D03*
X10798D02*
D03*
X10773D02*
D03*
X10748D02*
D03*
X10723D02*
D03*
X10698D02*
D03*
X10673D02*
D03*
X10648D02*
D03*
X10623D02*
D03*
X10598D02*
D03*
X10598Y8676D02*
D03*
D12*
X10531Y8208D02*
D03*
Y8143D02*
D03*
X10587D02*
D03*
Y8208D02*
D03*
D13*
X10532Y8277D02*
D03*
X10808Y8010D02*
D03*
Y7950D02*
D03*
X10912Y8583D02*
D03*
X10907Y7964D02*
D03*
X10912Y8643D02*
D03*
X10856Y7950D02*
D03*
X10532Y8337D02*
D03*
X10587Y8277D02*
D03*
Y8337D02*
D03*
X10907Y8024D02*
D03*
X10856Y8010D02*
D03*
X10761Y7966D02*
D03*
Y8026D02*
D03*
D14*
X10545Y7842D02*
D03*
Y7922D02*
D03*
D15*
X10805Y7735D02*
D03*
X10885D02*
D03*
D16*
X10710Y7841D02*
D03*
X10788D02*
D03*
X10867D02*
D03*
X10631D02*
D03*
D17*
X10545Y7922D02*
X10639D01*
X10865Y7754D02*
Y7831D01*
Y7754D02*
X10885Y7735D01*
X10533Y7831D02*
X10629D01*
X10639Y7922D02*
X10691Y7974D01*
D18*
X10804Y7679D02*
X10805Y7735D01*
D19*
X10763Y7676D02*
X10843D01*
D20*
X9206Y9007D02*
X9166D01*
Y8977D01*
X9186D01*
X9166D01*
Y8947D01*
X9226D02*
Y9007D01*
X9256D01*
X9266Y8997D01*
Y8977D01*
X9256Y8967D01*
X9226D01*
X9246D02*
X9266Y8947D01*
X9316D02*
Y9007D01*
X9286Y8977D01*
X9326D01*
X9406Y8947D02*
X9426D01*
X9416D01*
Y9007D01*
X9406Y8997D01*
X9456D02*
X9466Y9007D01*
X9486D01*
X9496Y8997D01*
Y8957D01*
X9486Y8947D01*
X9466D01*
X9456Y8957D01*
Y8997D01*
X9516Y8947D02*
X9556Y8987D01*
X9576Y8947D02*
X9596D01*
X9586D01*
Y9007D01*
X9576Y8997D01*
X9626D02*
X9636Y9007D01*
X9656D01*
X9666Y8997D01*
Y8957D01*
X9656Y8947D01*
X9636D01*
X9626Y8957D01*
Y8997D01*
X9776Y8947D02*
Y9007D01*
X9746Y8977D01*
X9786D01*
X9806Y8997D02*
X9816Y9007D01*
X9836D01*
X9846Y8997D01*
Y8987D01*
X9836Y8977D01*
X9826D01*
X9836D01*
X9846Y8967D01*
Y8957D01*
X9836Y8947D01*
X9816D01*
X9806Y8957D01*
X9866Y8947D02*
Y8957D01*
X9876D01*
Y8947D01*
X9866D01*
X9916Y8997D02*
X9926Y9007D01*
X9946D01*
X9956Y8997D01*
Y8957D01*
X9946Y8947D01*
X9926D01*
X9916Y8957D01*
Y8997D01*
X10036Y8987D02*
X10076Y8947D01*
X10056Y8967D01*
X10076Y8987D01*
X10036Y8947D01*
X10155Y8997D02*
X10165Y9007D01*
X10185D01*
X10195Y8997D01*
Y8987D01*
X10185Y8977D01*
X10175D01*
X10185D01*
X10195Y8967D01*
Y8957D01*
X10185Y8947D01*
X10165D01*
X10155Y8957D01*
X10245Y8947D02*
Y9007D01*
X10215Y8977D01*
X10255D01*
X10275Y8947D02*
Y8957D01*
X10285D01*
Y8947D01*
X10275D01*
X10325Y8997D02*
X10335Y9007D01*
X10355D01*
X10365Y8997D01*
Y8957D01*
X10355Y8947D01*
X10335D01*
X10325Y8957D01*
Y8997D01*
X9088Y7314D02*
Y7254D01*
Y7284D01*
X9128D01*
Y7314D01*
Y7254D01*
X9148D02*
Y7294D01*
X9158D01*
X9168Y7284D01*
Y7254D01*
Y7284D01*
X9178Y7294D01*
X9188Y7284D01*
Y7254D01*
X9218Y7294D02*
X9238D01*
X9248Y7284D01*
Y7254D01*
X9218D01*
X9208Y7264D01*
X9218Y7274D01*
X9248D01*
X9268Y7294D02*
X9308Y7254D01*
X9288Y7274D01*
X9308Y7294D01*
X9268Y7254D01*
X9388Y7294D02*
Y7264D01*
X9398Y7254D01*
X9428D01*
Y7294D01*
X9448Y7234D02*
Y7294D01*
X9478D01*
X9488Y7284D01*
Y7264D01*
X9478Y7254D01*
X9448D01*
X9508Y7274D02*
X9548D01*
X9508Y7294D02*
X9548D01*
X9598Y7254D02*
Y7314D01*
X9568Y7284D01*
X9608D01*
X9628Y7254D02*
Y7264D01*
X9638D01*
Y7254D01*
X9628D01*
X9678Y7304D02*
X9688Y7314D01*
X9708D01*
X9718Y7304D01*
Y7264D01*
X9708Y7254D01*
X9688D01*
X9678Y7264D01*
Y7304D01*
X9738Y7254D02*
Y7294D01*
X9748D01*
X9758Y7284D01*
Y7254D01*
Y7284D01*
X9768Y7294D01*
X9778Y7284D01*
Y7254D01*
X9798D02*
Y7294D01*
X9808D01*
X9818Y7284D01*
Y7254D01*
Y7284D01*
X9828Y7294D01*
X9838Y7284D01*
Y7254D01*
X9088Y7214D02*
Y7154D01*
Y7184D01*
X9128D01*
Y7214D01*
Y7154D01*
X9148D02*
Y7194D01*
X9158D01*
X9168Y7184D01*
Y7154D01*
Y7184D01*
X9178Y7194D01*
X9188Y7184D01*
Y7154D01*
X9218Y7194D02*
X9238D01*
X9248Y7184D01*
Y7154D01*
X9218D01*
X9208Y7164D01*
X9218Y7174D01*
X9248D01*
X9268Y7194D02*
X9308Y7154D01*
X9288Y7174D01*
X9308Y7194D01*
X9268Y7154D01*
X9428Y7214D02*
Y7154D01*
X9398D01*
X9388Y7164D01*
Y7184D01*
X9398Y7194D01*
X9428D01*
X9448D02*
Y7164D01*
X9458Y7154D01*
X9468Y7164D01*
X9478Y7154D01*
X9488Y7164D01*
Y7194D01*
X9508Y7174D02*
X9548D01*
X9508Y7194D02*
X9548D01*
X9568Y7204D02*
X9578Y7214D01*
X9598D01*
X9608Y7204D01*
Y7194D01*
X9598Y7184D01*
X9588D01*
X9598D01*
X9608Y7174D01*
Y7164D01*
X9598Y7154D01*
X9578D01*
X9568Y7164D01*
X9628Y7154D02*
Y7164D01*
X9638D01*
Y7154D01*
X9628D01*
X9678Y7204D02*
X9688Y7214D01*
X9708D01*
X9718Y7204D01*
Y7164D01*
X9708Y7154D01*
X9688D01*
X9678Y7164D01*
Y7204D01*
X9738Y7154D02*
Y7194D01*
X9748D01*
X9758Y7184D01*
Y7154D01*
Y7184D01*
X9768Y7194D01*
X9778Y7184D01*
Y7154D01*
X9798D02*
Y7194D01*
X9808D01*
X9818Y7184D01*
Y7154D01*
Y7184D01*
X9828Y7194D01*
X9838Y7184D01*
Y7154D01*
X9088Y7054D02*
Y7114D01*
X9118D01*
X9128Y7104D01*
Y7084D01*
X9118Y7074D01*
X9088D01*
X9188Y7104D02*
X9178Y7114D01*
X9158D01*
X9148Y7104D01*
Y7064D01*
X9158Y7054D01*
X9178D01*
X9188Y7064D01*
X9208Y7114D02*
Y7054D01*
X9238D01*
X9248Y7064D01*
Y7074D01*
X9238Y7084D01*
X9208D01*
X9238D01*
X9248Y7094D01*
Y7104D01*
X9238Y7114D01*
X9208D01*
X9268Y7094D02*
X9278D01*
Y7084D01*
X9268D01*
Y7094D01*
Y7064D02*
X9278D01*
Y7054D01*
X9268D01*
Y7064D01*
X9378Y7054D02*
X9398D01*
X9388D01*
Y7114D01*
X9378Y7104D01*
X9428Y7054D02*
Y7064D01*
X9438D01*
Y7054D01*
X9428D01*
X9478Y7104D02*
X9488Y7114D01*
X9508D01*
X9518Y7104D01*
Y7064D01*
X9508Y7054D01*
X9488D01*
X9478Y7064D01*
Y7104D01*
X9538Y7054D02*
Y7094D01*
X9548D01*
X9558Y7084D01*
Y7054D01*
Y7084D01*
X9568Y7094D01*
X9578Y7084D01*
Y7054D01*
X9598D02*
Y7094D01*
X9608D01*
X9618Y7084D01*
Y7054D01*
Y7084D01*
X9628Y7094D01*
X9638Y7084D01*
Y7054D01*
D21*
X10688Y7974D02*
D03*
Y8374D02*
D03*
Y8274D02*
D03*
Y8174D02*
D03*
Y8074D02*
D03*
D22*
X10557Y8676D02*
D03*
X10723Y8526D02*
D03*
X10748Y8604D02*
D03*
X10830Y8390D02*
D03*
X10798Y8535D02*
D03*
Y8616D02*
D03*
X10856Y8678D02*
D03*
X10615Y8405D02*
D03*
X10918Y7796D02*
D03*
X10645Y8777D02*
D03*
X10907Y8692D02*
D03*
X10582Y8558D02*
D03*
X10532Y8097D02*
D03*
X10911Y8365D02*
D03*
X10534Y7719D02*
D03*
X10546Y8043D02*
D03*
X10543Y7993D02*
D03*
X10678Y7728D02*
D03*
X10438Y7571D02*
D03*
X10035Y7600D02*
D03*
X9362Y8474D02*
D03*
X9358Y7856D02*
D03*
X9332Y7603D02*
D03*
X9355Y8732D02*
D03*
X9616Y8752D02*
D03*
X10029D02*
D03*
X10445Y8774D02*
D03*
X10905Y7921D02*
D03*
X10740Y7918D02*
D03*
X10760Y8365D02*
D03*
X10911Y8538D02*
D03*
X10843Y7676D02*
D03*
X10805D02*
D03*
X10763D02*
D03*
X9760Y7590D02*
D03*
X10657Y8604D02*
D03*
M02*
